{
  "@token": "DEFAULT1",
  "@fixed": "false",
  "Name": "DEFAULT1",
  "VideoSourceConfiguration": {
    "@token": "VIDSRCCFG0"
  },
  "VideoEncoderConfiguration": {
    "@token": "VIDENCCFG0"
  },
  "MediaUri": {
    "Stream": {
      "RTP-Unicast": {
        "UDP": {
          "Uri": "rtsp://10.10.10.103:554/ufirststream",
          "InvalidAfterConnect": "false",
          "InvalidAfterReboot": "true",
          "Timeout": "PT0S"
        },
        "TCP": {
          "Uri": "rtsp://10.10.10.103:554/ufirststream",
          "InvalidAfterConnect": "false",
          "InvalidAfterReboot": "true",
          "Timeout": "PT0S"
        }
      },
      "RTP-Multicast": {
        "UDP": {
          "Uri": "rtsp://10.10.10.103:554/mfirststream",
          "InvalidAfterConnect": "false",
          "InvalidAfterReboot": "true",
          "Timeout": "PT0S"
        }
      }
    },
    "Snapshot": {
      "Uri": "http://10.10.10.103:80/uapi-cgi/guest/snapshot.fcgi",
      "InvalidAfterConnect": "false",
      "InvalidAfterReboot": "true",
      "Timeout": "PT0S"
    }
  }
}
